info face="Consolas" size=20 bold=0 italic=0 charset="" unicode=0 stretchH=100 smooth=1 aa=1 padding=0,0,0,0 spacing=0,0
common lineHeight=24 base=17 scaleW=128 scaleH=128 pages=1 packed=0
page id=0 file="consolas.png"
chars count=95
char id=32   x=0     y=0     width=0     height=0     xoffset=0     yoffset=17    xadvance=11     page=0  chnl=0 
char id=124   x=0     y=0     width=4     height=22     xoffset=5     yoffset=0    xadvance=11     page=0  chnl=0 
char id=106   x=4     y=0     width=9     height=21     xoffset=2     yoffset=1    xadvance=11     page=0  chnl=0 
char id=64   x=13     y=0     width=12     height=20     xoffset=0     yoffset=2    xadvance=11     page=0  chnl=0 
char id=125   x=25     y=0     width=9     height=20     xoffset=3     yoffset=2    xadvance=11     page=0  chnl=0 
char id=123   x=34     y=0     width=9     height=20     xoffset=1     yoffset=2    xadvance=11     page=0  chnl=0 
char id=93   x=43     y=0     width=7     height=20     xoffset=3     yoffset=2    xadvance=11     page=0  chnl=0 
char id=91   x=50     y=0     width=7     height=20     xoffset=3     yoffset=2    xadvance=11     page=0  chnl=0 
char id=41   x=57     y=0     width=8     height=20     xoffset=2     yoffset=2    xadvance=11     page=0  chnl=0 
char id=40   x=65     y=0     width=7     height=20     xoffset=3     yoffset=2    xadvance=11     page=0  chnl=0 
char id=36   x=72     y=0     width=11     height=19     xoffset=1     yoffset=1    xadvance=11     page=0  chnl=0 
char id=81   x=83     y=0     width=12     height=19     xoffset=1     yoffset=3    xadvance=11     page=0  chnl=0 
char id=92   x=95     y=0     width=10     height=18     xoffset=2     yoffset=2    xadvance=11     page=0  chnl=0 
char id=47   x=105     y=0     width=10     height=18     xoffset=1     yoffset=2    xadvance=11     page=0  chnl=0 
char id=105   x=115     y=0     width=10     height=17     xoffset=2     yoffset=1    xadvance=11     page=0  chnl=0 
char id=37   x=0     y=22     width=13     height=16     xoffset=0     yoffset=2    xadvance=11     page=0  chnl=0 
char id=63   x=13     y=22     width=8     height=16     xoffset=3     yoffset=2    xadvance=11     page=0  chnl=0 
char id=33   x=21     y=22     width=5     height=16     xoffset=4     yoffset=2    xadvance=11     page=0  chnl=0 
char id=121   x=26     y=22     width=12     height=16     xoffset=0     yoffset=6    xadvance=11     page=0  chnl=0 
char id=113   x=38     y=22     width=11     height=16     xoffset=1     yoffset=6    xadvance=11     page=0  chnl=0 
char id=112   x=49     y=22     width=10     height=16     xoffset=2     yoffset=6    xadvance=11     page=0  chnl=0 
char id=108   x=59     y=22     width=10     height=16     xoffset=2     yoffset=2    xadvance=11     page=0  chnl=0 
char id=107   x=69     y=22     width=9     height=16     xoffset=2     yoffset=2    xadvance=11     page=0  chnl=0 
char id=104   x=78     y=22     width=10     height=16     xoffset=2     yoffset=2    xadvance=11     page=0  chnl=0 
char id=103   x=88     y=22     width=11     height=16     xoffset=1     yoffset=6    xadvance=11     page=0  chnl=0 
char id=102   x=99     y=22     width=11     height=16     xoffset=1     yoffset=2    xadvance=11     page=0  chnl=0 
char id=100   x=110     y=22     width=11     height=16     xoffset=1     yoffset=2    xadvance=11     page=0  chnl=0 
char id=98   x=0     y=38     width=11     height=16     xoffset=2     yoffset=2    xadvance=11     page=0  chnl=0 
char id=127   x=11     y=38     width=11     height=15     xoffset=1     yoffset=3    xadvance=11     page=0  chnl=0 
char id=38   x=22     y=38     width=12     height=15     xoffset=1     yoffset=3    xadvance=11     page=0  chnl=0 
char id=35   x=34     y=38     width=12     height=15     xoffset=0     yoffset=3    xadvance=11     page=0  chnl=0 
char id=59   x=46     y=38     width=7     height=15     xoffset=2     yoffset=6    xadvance=11     page=0  chnl=0 
char id=48   x=53     y=38     width=12     height=15     xoffset=1     yoffset=3    xadvance=11     page=0  chnl=0 
char id=57   x=65     y=38     width=11     height=15     xoffset=1     yoffset=3    xadvance=11     page=0  chnl=0 
char id=56   x=76     y=38     width=11     height=15     xoffset=1     yoffset=3    xadvance=11     page=0  chnl=0 
char id=55   x=87     y=38     width=11     height=15     xoffset=1     yoffset=3    xadvance=11     page=0  chnl=0 
char id=54   x=98     y=38     width=11     height=15     xoffset=1     yoffset=3    xadvance=11     page=0  chnl=0 
char id=53   x=109     y=38     width=9     height=15     xoffset=2     yoffset=3    xadvance=11     page=0  chnl=0 
char id=52   x=0     y=54     width=12     height=15     xoffset=0     yoffset=3    xadvance=11     page=0  chnl=0 
char id=51   x=12     y=54     width=10     height=15     xoffset=2     yoffset=3    xadvance=11     page=0  chnl=0 
char id=50   x=22     y=54     width=10     height=15     xoffset=1     yoffset=3    xadvance=11     page=0  chnl=0 
char id=49   x=32     y=54     width=10     height=15     xoffset=2     yoffset=3    xadvance=11     page=0  chnl=0 
char id=90   x=42     y=54     width=11     height=15     xoffset=1     yoffset=3    xadvance=11     page=0  chnl=0 
char id=89   x=53     y=54     width=13     height=15     xoffset=0     yoffset=3    xadvance=11     page=0  chnl=0 
char id=88   x=66     y=54     width=12     height=15     xoffset=0     yoffset=3    xadvance=11     page=0  chnl=0 
char id=87   x=78     y=54     width=12     height=15     xoffset=0     yoffset=3    xadvance=11     page=0  chnl=0 
char id=86   x=90     y=54     width=13     height=15     xoffset=-1     yoffset=3    xadvance=11     page=0  chnl=0 
char id=85   x=103     y=54     width=11     height=15     xoffset=1     yoffset=3    xadvance=11     page=0  chnl=0 
char id=84   x=114     y=54     width=12     height=15     xoffset=1     yoffset=3    xadvance=11     page=0  chnl=0 
char id=83   x=0     y=69     width=11     height=15     xoffset=1     yoffset=3    xadvance=11     page=0  chnl=0 
char id=82   x=11     y=69     width=10     height=15     xoffset=2     yoffset=3    xadvance=11     page=0  chnl=0 
char id=80   x=21     y=69     width=11     height=15     xoffset=2     yoffset=3    xadvance=11     page=0  chnl=0 
char id=78   x=32     y=69     width=11     height=15     xoffset=1     yoffset=3    xadvance=11     page=0  chnl=0 
char id=77   x=43     y=69     width=12     height=15     xoffset=0     yoffset=3    xadvance=11     page=0  chnl=0 
char id=76   x=55     y=69     width=9     height=15     xoffset=2     yoffset=3    xadvance=11     page=0  chnl=0 
char id=75   x=64     y=69     width=10     height=15     xoffset=2     yoffset=3    xadvance=11     page=0  chnl=0 
char id=74   x=74     y=69     width=9     height=15     xoffset=2     yoffset=3    xadvance=11     page=0  chnl=0 
char id=73   x=83     y=69     width=10     height=15     xoffset=2     yoffset=3    xadvance=11     page=0  chnl=0 
char id=72   x=93     y=69     width=11     height=15     xoffset=1     yoffset=3    xadvance=11     page=0  chnl=0 
char id=71   x=104     y=69     width=12     height=15     xoffset=1     yoffset=3    xadvance=11     page=0  chnl=0 
char id=70   x=116     y=69     width=9     height=15     xoffset=2     yoffset=3    xadvance=11     page=0  chnl=0 
char id=69   x=0     y=84     width=9     height=15     xoffset=2     yoffset=3    xadvance=11     page=0  chnl=0 
char id=68   x=9     y=84     width=11     height=15     xoffset=1     yoffset=3    xadvance=11     page=0  chnl=0 
char id=67   x=20     y=84     width=11     height=15     xoffset=1     yoffset=3    xadvance=11     page=0  chnl=0 
char id=66   x=31     y=84     width=11     height=15     xoffset=2     yoffset=3    xadvance=11     page=0  chnl=0 
char id=65   x=42     y=84     width=12     height=15     xoffset=0     yoffset=3    xadvance=11     page=0  chnl=0 
char id=116   x=54     y=84     width=11     height=14     xoffset=1     yoffset=4    xadvance=11     page=0  chnl=0 
char id=79   x=65     y=84     width=11     height=14     xoffset=1     yoffset=4    xadvance=11     page=0  chnl=0 
char id=43   x=76     y=84     width=12     height=12     xoffset=1     yoffset=5    xadvance=11     page=0  chnl=0 
char id=62   x=88     y=84     width=9     height=12     xoffset=2     yoffset=6    xadvance=11     page=0  chnl=0 
char id=60   x=97     y=84     width=9     height=12     xoffset=1     yoffset=6    xadvance=11     page=0  chnl=0 
char id=58   x=106     y=84     width=5     height=12     xoffset=4     yoffset=6    xadvance=11     page=0  chnl=0 
char id=122   x=111     y=84     width=10     height=12     xoffset=2     yoffset=6    xadvance=11     page=0  chnl=0 
char id=120   x=0     y=99     width=10     height=12     xoffset=1     yoffset=6    xadvance=11     page=0  chnl=0 
char id=119   x=10     y=99     width=12     height=12     xoffset=0     yoffset=6    xadvance=11     page=0  chnl=0 
char id=118   x=22     y=99     width=12     height=12     xoffset=0     yoffset=6    xadvance=11     page=0  chnl=0 
char id=117   x=34     y=99     width=10     height=12     xoffset=2     yoffset=6    xadvance=11     page=0  chnl=0 
char id=115   x=44     y=99     width=10     height=12     xoffset=2     yoffset=6    xadvance=11     page=0  chnl=0 
char id=114   x=54     y=99     width=10     height=12     xoffset=2     yoffset=6    xadvance=11     page=0  chnl=0 
char id=111   x=64     y=99     width=11     height=12     xoffset=1     yoffset=6    xadvance=11     page=0  chnl=0 
char id=110   x=75     y=99     width=10     height=12     xoffset=2     yoffset=6    xadvance=11     page=0  chnl=0 
char id=109   x=85     y=99     width=12     height=12     xoffset=1     yoffset=6    xadvance=11     page=0  chnl=0 
char id=99   x=97     y=99     width=10     height=12     xoffset=2     yoffset=6    xadvance=11     page=0  chnl=0 
char id=97   x=107     y=99     width=10     height=12     xoffset=1     yoffset=6    xadvance=11     page=0  chnl=0 
char id=101   x=0     y=111     width=11     height=11     xoffset=1     yoffset=7    xadvance=11     page=0  chnl=0 
char id=42   x=11     y=111     width=8     height=10     xoffset=2     yoffset=2    xadvance=11     page=0  chnl=0 
char id=61   x=19     y=111     width=10     height=8     xoffset=1     yoffset=8    xadvance=11     page=0  chnl=0 
char id=94   x=29     y=111     width=11     height=8     xoffset=1     yoffset=3    xadvance=11     page=0  chnl=0 
char id=126   x=40     y=111     width=12     height=7     xoffset=1     yoffset=9    xadvance=11     page=0  chnl=0 
char id=44   x=52     y=111     width=7     height=7     xoffset=2     yoffset=14    xadvance=11     page=0  chnl=0 
char id=39   x=59     y=111     width=3     height=7     xoffset=4     yoffset=2    xadvance=11     page=0  chnl=0 
char id=34   x=62     y=111     width=7     height=7     xoffset=3     yoffset=2    xadvance=11     page=0  chnl=0 
char id=46   x=69     y=111     width=5     height=5     xoffset=4     yoffset=13    xadvance=11     page=0  chnl=0 
char id=96   x=74     y=111     width=6     height=5     xoffset=2     yoffset=1    xadvance=11     page=0  chnl=0 
char id=95   x=80     y=111     width=13     height=4     xoffset=0     yoffset=18    xadvance=11     page=0  chnl=0 
char id=45   x=93     y=111     width=8     height=4     xoffset=3     yoffset=9    xadvance=11     page=0  chnl=0 
