{
	"include":[
      "config/paths.json",
      "config/chapter1.json"
	],
	"opfor":{
		"content":[
			{
				"class":"opfor",
				"name":"sidewinder",
				"spawns":[
					{
						"waveSize": 1,
						"waveVariance":3,
						"vertDist":0,
						"timeDist":0.1,
						"paths":["downSwwop"],
						"max":1,
						"min":0
					},
					{
						"waveSize": 1,
						"waveVariance":3,
						"vertDist":0,
						"timeDist":0.1,
						"paths":["upSwwop"],
						"max":0,
						"min":-1
					}
				],
				"score": 1000,
				"health":10,
				"bulletDamage":10
			},
			{
				"class":"opfor",
				"name":"dropship",
				"spawns":[
				{
				"waveSize": 1,
				"waveVariance":3,
				"vertDist":0,
				"timeDist":0.1,
				"paths":["downSwwop"],
				"max":1,
				"min":0
				},
				{
				"waveSize": 1,
				"waveVariance":3,
				"vertDist":0,
				"timeDist":0.1,
				"paths":["upSwwop"],
				"max":0,
				"min":-1
				}],
				"score": 2500,
				"health":25,
				"bulletDamage":10
			}
		]
	}
}